<?xml version="1.0" encoding="UTF-8"?>
<svg width="47px" height="37px" viewBox="0 0 47 37" version="1.1" xmlns="http://www.w3.org/2000/svg" xmlns:xlink="http://www.w3.org/1999/xlink">
    <!-- Generator: Sketch 51.3 (57544) - http://www.bohemiancoding.com/sketch -->
    <title>Shape</title>
    <desc>Created with Sketch.</desc>
    <defs></defs>
    <g id="Home" stroke="none" stroke-width="1" fill="none" fill-rule="evenodd">
        <g id="Inversionistas----Desktop---Desplegable-segundo-horizonte" transform="translate(-498.000000, -1657.000000)" fill="#5A2D81" fill-rule="nonzero">
            <g id="Group-33" transform="translate(72.000000, 1486.000000)">
                <g id="Group-39" transform="translate(375.000000, 113.000000)">
                    <g id="Group-2">
                        <g id="Group-42">
                            <g id="Group-36" transform="translate(51.000000, 58.000000)">
                                <path d="M36.92038,25.72404 L37.51822,25.1262 L43.2776,30.88652 L42.67976,31.48436 L36.92038,25.72404 Z M26.48544,14.69314 C28.9238,12.25572 32.92632,12.25478 35.36468,14.69314 C37.8021,17.12962 37.8021,21.13402 35.36468,23.57144 C32.9282,26.00886 28.92286,26.00886 26.48544,23.57144 C24.04802,21.13402 24.04802,17.13056 26.48544,14.69314 Z M37.22588,12.83194 C33.76574,9.3718 28.08438,9.3718 24.62424,12.83194 C21.16316,16.29208 21.16316,21.97344 24.62424,25.43264 C27.26752,28.07686 31.30858,28.78656 34.68506,27.213 L42.67882,35.2077 L47,30.88652 L39.00718,22.89182 C40.57792,19.51346 39.8701,15.47522 37.22588,12.83194 Z M16.06366,25.08766 L18.7201,25.08766 L18.7201,27.7441 L16.06366,27.7441 L16.06366,25.08766 Z M16.06366,19.77478 L18.7201,19.77478 L18.7201,22.43122 L16.06366,22.43122 L16.06366,19.77478 Z M20.90936,17.3947 L13.68358,17.3947 L13.68358,30.12418 L26.41306,30.12418 L26.41306,28.24136 C25.55296,27.81554 24.75114,27.26564 24.03298,26.602 L24.03298,27.7441 L21.37654,27.7441 L21.37654,25.08766 L22.68784,25.08766 C21.44046,23.36558 20.76084,21.291 20.76084,19.13182 C20.76084,18.54526 20.81066,17.96434 20.90936,17.3947 Z M20.04832,3.79196 L26.2542,10.10406 C26.64242,9.9029 27.0438,9.72712 27.45552,9.57766 L27.45552,4.75828 L31.17322,4.75828 L31.17322,8.97324 C32.08314,8.99486 32.9752,9.13774 33.83154,9.39248 L33.83154,2.09902 L24.79814,2.09902 L24.79814,4.82972 L20.04926,0 L0,20.3886 L0,23.75944 L3.5297,23.75944 L3.5297,36.49644 L36.56694,36.49644 L36.56694,30.86678 L34.3899,28.68974 L33.90862,28.85048 L33.90862,33.83812 L6.18708,33.83812 L6.18708,21.10112 L3.02774,21.10112 L20.04832,3.79196 Z" id="Shape"></path>
                            </g>
                        </g>
                    </g>
                </g>
            </g>
        </g>
    </g>
</svg>